[
    {   
        "id": "0",
        "name":"Katrin22",
        "password" : "password",
        "dateOfBirth" : "2018-09-22T10:48:12.096Z",
        "dateOfFirstLogin" : "2018-09-22T10:48:12.096Z",
        "dateOfNextNotification" : "2018-09-22T10:48:12.096Z",
        "information" : "something"
    },
    {   
        "id":"1",
        "name":"Mark",
        "password" : "qwerty",
        "dateOfBirth" : "2018-09-22T10:48:12.096Z",
        "dateOfFirstLogin" : "2018-09-22T10:48:12.096Z",
        "dateOfNextNotification" : "2018-09-22T10:48:12.096Z",
        "information" : "something"
    },
    {   
        "id":"2",
        "name":"Jon",
        "password" : "123456",
        "dateOfBirth" : "2018-09-22T10:48:12.096Z",
        "dateOfFirstLogin" : "2018-09-22T10:48:12.096Z",
        "dateOfNextNotification" : "2018-09-22T10:48:12.096Z",
        "information" : "something"
    }
]